Filename,x1,y1,x2,y2,classname
/home/dj/Work/DeepBlue/keras-frcnn-master/coke_train/3.jpg,107,20,188,252,coke
/home/dj/Work/DeepBlue/keras-frcnn-master/coke_train/5.jpg,370,94,724,1240,coke
/home/dj/Work/DeepBlue/keras-frcnn-master/coke_train/1.jpg,452,57,928,1161,coke
/home/dj/Work/DeepBlue/keras-frcnn-master/coke_train/2.png,179,6,318,308,coke
/home/dj/Work/DeepBlue/keras-frcnn-master/coke_train/4.jpg,205,15,365,315,coke
